ปุญญพัฒน์ ญาณวิสิฏฐ์ 5910401106
 - เลือกทุกหัวข้อการให้คะแนนในโปรเจค

 วิธีการเล่น
 - ใช้ปุ่ม "ขึ้น", "ลง", "ซ้าย", "ขวา" และ "ENTER" เพื่อเลือกภายในเมนู
 - ตั้งค่า
 - 1. Mode :
     "Key"   ใช้คีย์บอร์ดเพื่อควบคุม Paddle
     "Mouse" ใช้เมาส์เพื่อควบคุม Paddle
 - 2. Difficulty Level :
     "Easy"   โหมดง่าย ลูกบอลช้า
     "Medium" โหมดปานกลาง ลูกบอลเร็วปานกลาง
     "Hard"   โหมดยาก ลูกบอลเร็วมาก
 - 3. Start at :
     เลือกด่านที่ต้องการเริ่มเล่น
 - 4. Paddle skin :
     เลือกรูปแบบของ Paddle (ไม่มีผลต่อเกม)
 - 5. Sound :
     "On"	= เปิดเสียง
     "Off"	= ปิดเสียง
 - 6. Music :
     "On"	= เปิดเพลง
     "Off"	= ปิดเพลง
- ภายในเกม
    - การควบคุม
        - 1. หากเลือกโหมด "Key" หรือไม่ได้ปรับการตั้งค่าใด
            - ใช้ "ซ้าย" และ "ขวา" เพื่อควบคุมการเคลื่อนที่ของ Paddle
            - หากเก็บ "ItemMissile" จะสามารถกด "SPACEBAR" เพื่อยิง missile ได้
        - 2. หากเลือกโหมด "Mouse"
            - ใช้การเคลื่อนไหวของเมาส์เพื่อควบคุมการเคลื่อนที่ของ Paddle
            - หากเก็บ "ItemMissile" จะสามารถคลิ๊กซ่ายเพื่อยิง missile ได้

        *** คำเตือน : หากเลือกโหมด "Key" ในระดับ "ยาก(Hard)"
            ความเร็วของบอลจะมากกว่าความเร็วของ Paddle ของคุณ ***

        - ระบบเกม
            - การตายทำให้ชีวิตของคุณลดลง 1 และหากชีวิตของคุณเท่ากับ 0 คุณจะแพ้
            - เมื่อคุณแพ้จะสามารถเข้าไปเช็คลำดับคะแนนของคุณได้ที่ scoreboard หากคุณติดอันดับ 10
            - คุณสามารถหยุดพักชั่วคราวได้โดยการกด "ESC" บนคีย์บอร์ด
            - เมื่อคุณเล่นจบ 1 ด่านคุณจะได้แต้มโบนัสดังนี้
                - ด่าน 1 : คะแนน +500
                - ด่าน 2 : คะแนน +1200
                - ด่าน 3 : คะแนน +2500

        - ไอเทม
            ในเกมนี้มีไอเทมทั้งหมด 3 ระดับ คือ "ไอเทมดี" "ไอเทมดีมาก" และ "ไอเทมแย่"
            1. ไอเทมดี (brick สีเขียว-ขาว)
                1.1 "Slow Ball" บอลจะช้าลง 10%
                1.2 "Longer Pad" paddle จะกว้างขึ้น 10%
                1.3 "Point Mulitple" การชน brick ครั้งถัด ๆ ไปจะได้รับแต้มเพิ่ม 10%
                1.4 "Invert Ball" บอลชนิดพิเศษที่บางครั้งเร็วบางครั้งช้า
            2. ไอเทมดีมาก (brick สีแดง-ดำ หรือ สีเขียว-ดำ)
                2.1 "Destroyer Aura" ออร่าสีทองที่เมื่อชน brick แล้วจะทำลายทันที
                    แม้ว่าบอลอื่นจะต้องหลายครั้งก็ตาม
                2.2 "Life Up" ชีวิตเพิ่มขึ้น 1
                2.3 "Ghost Aura" ออร่าสีม่วงที่สามารถพุ่งทำลาย brick ทุกชนิดไปได้ในทันที
                    ยกเว้น "Unbreakable Brick" แต่บอลก้จะพุ่งทะลุผ่าน brick นั้นไปทันที
                    และออร่านี้จะหายไปเพื่อเกิดการชนกับเพดานหรือกำแพงด้านข้าง
                    ** คำเตือน : ถ้าคุณได้รับออร่านี้ผลของ "Destroyer Aura" จะถูกยกเลิกทันที **
                2.4 "Multiple Ball (x3)" บอลแยกออกเป็น 3 ลูก คุณจะไม่แพ้ตราบใดที่ยัง
                    มีบอลลูกใดลูกหนึ่งเหลืออยู่
                2.5 "Revive Aura" ออร่าสีเชียวที่สามารถช่วยชีวิตคุณได้หากบอลตกกระทบพื้น คุณจะไม่เสียชีวิต
                    แต่บอลและ paddle จะคืนสภาพกลับเป็นเหมือนแรกเริ่มทันที
                2.6 "Missile Activated" คุณจะสามารถกดปุ่มเฉพาะตามโหมดที่คุณได้เลือกไว้
                    เพื่อยิงมิซไซล์ออกไปทำลาย brick
            3. ไอเทมแย่ (brick สีม่วงดำ)
                3.1 "Speed Ball" ความเร็วบอลเพิ่มขึ้น 20%
                3.2 "Default Ball" บอลและ paddle ของคูณกลับสู่สภาพเริ่มแรก
                3.3 "The Death" ลด 1 ชีวิตลงทันที

*** หากคุณระบุชื่อว่าเป็น "teacher" หรือ "tester" คุณจะสามารถใช้ปุ่มพิเศษสำหรับผู้ทดสอบได้
+โหมดทดสอบ+
กด '1' สำหรับ "longer pad"
กด '2' สำหรับ "slow ball"
กด '3' สำหรับ "destroyer aura"
กด '4' สำหรับ "ghost aura"
กด '5' สำหรับ "revive aura"
กด '6' สำหรับ "multiple ball x3"
กด '7' สำหรับ "missile activate"
กด '8' สำหรับ "life up"
